…
4. Data analysis plan

We will visualize date, breaking leaves/buds/needles, flowering, and
fruiting phenophases of comparable species. We will also visualize these
phenophases based on records of climatic variables from this field
season. The climatic variables will need to be sourced from the NERACOOS
database. We plan on utilizing violin plots, lollipop plots, ridge
plots, as well as potential animations and maps.

# how many plants (total)
distinct(hurricane_plants, species) #there are 24 individual species

## # A tibble: 23 × 1
##    species                
##    <chr>                  
##  1 Malus sp.              
##  2 Morella pensylvanica   
##  3 Lathyrus japonicus     
##  4 Rosa rugosa            
##  5 Rubus allegheniensis   
##  6 Sambucus nigra         
##  7 Vaccinium angustifolium
##  8 Cirsium vulgare        
##  9 Calendula officinalis  
## 10 Maianthemum canadense  
## # ℹ 13 more rows
…
## Warning: There were 36 warnings in `summarise()`.
## The first warning was:
## ℹ In argument: `max_breaking_leaf = max(breaking_leaf_buds_count, na.rm = T)`.
## ℹ In group 1: `species = "Achillea millefolium"`.
## Caused by warning in `max()`:
## ! no non-missing arguments to max; returning -Inf
## ℹ Run `dplyr::last_dplyr_warnings()` to see the 35 remaining warnings.

## # A tibble: 23 × 3
##    species                max_breaking_leaf max_breaking_needle
##    <chr>                              <dbl>               <dbl>
##  1 Achillea millefolium                -Inf                -Inf
##  2 Aesculus hippocastanum             10000                -Inf
##  3 Allium sativum                      -Inf                -Inf
##  4 Aralia nudicalis                    -Inf                -Inf
##  5 Brassica rapa                       -Inf                -Inf
##  6 Calendula officinalis               -Inf                -Inf
##  7 Cirsium vulgare                     -Inf                -Inf
##  8 Digitalis purpurea                  -Inf                -Inf
##  9 Lathyrus japonicus                  -Inf                -Inf
## 10 Maianthemum canadense               -Inf                -Inf
## # ℹ 13 more rows
…
